{
    "name": "reskins-compatibility",
    "version": "2.1.6",
    "factorio_version": "1.1",
    "title": "Artisanal Reskins: Compatibility",
    "author": "Kirazy",
    "contact": "kirazy@live.com",
    "homepage": "",
    "dependencies": [
        "base",
        "reskins-library >= 2.1.0",
        "(?) reskins-bobs",
        "(?) reskins-angels",
        "? aai-industry",
        "? angels-smelting-extended",
        "? Bio_Industries",
        "? CircuitProcessing",
        "? classic-beacon",
        "? classic-mining-drill",
        "? Clowns-Processing",
        "? deadlock-beltboxes-loaders",
        "? DeadlockBlackRubberBelts",
        "? DeadlockCrating",
        "? DeadlockStackingForBobs",
        "? DeadlockStackingForVanilla",
        "? extendedangels",
        "(?) electricboiler",
        "? LoaderRedux",
        "? mini-machines",
        "? miniloader",
        "? NauvisDay",
        "? P-U-M-P-S",
        "? RealisticReactorGlow",
        "(?) ScienceCostTweakerM",
        "? semi-classic-mining-drill",
        "? spaceblock",
        "? vanilla-loaders-hd"
    ]
}