{
    "name": "beautiful_straight_bridge_railway",
    "version": "1.1.3",
    "title": "Schmitt | Beautiful Bridge Railway: Straight! Length-Limit!",
    "author": "DE_Schmitt",
    "contact": "",
    "homepage": "",
    "factorio_version": "1.1",
    "dependencies": ["base >= 0.15"],
    "description": "This mod is a copy of the mod Beautiful Bridge Railway by author kapaer. The only difference is that here curved rails can't be placed on water."
}





