{
    "name": "extendedangels",
    "version": "0.5.9",
    "factorio_version": "1.1",
    "title": "Extended Angels",
    "author": "AdamCirillo",
    "dependencies":[
        "angelssmelting >= 0.6.20",
        "bobplates",
        "flib",
        "? angelsaddons-storage",
        "? bobtech",
        "? angelsbioprocessing >= 0.7.23",
        "? Clowns-Processing"
    ]
}